Erstellt codebook und db_data aus Rohdaten — create_codebook_and_db_data • HEXCleanR
…
raw_data_fs <- tibble::tibble(
  data_analytics_ki = 1,
  softwareentwicklung = 0,
  nutzerzentriertes_design = 0,
  it_architektur = 1,
  hardware_robotikentwicklung = 0,
  quantencomputing = 0
)

res <- create_codebook_and_db_data(raw_data, raw_data_fs)
res$codebook
#> # A tibble: 32 × 1
#>    Variablen          
#>    <chr>              
#>  1 anmerkungen        
#>  2 dozierende         
#>  3 ects               
#>  4 fakultaet          
#>  5 hochschule         
#>  6 hochschule_kurz    
#>  7 jahr               
#>  8 kursbeschreibung   
#>  9 kursformat_original
#> 10 kursformat_recoded 
#> # ℹ 22 more rows
…
